%YAML 1.1
%TAG !u! tag:unity3d.com,2011:
--- !u!1045 &1
EditorBuildSettings:
  m_ObjectHideFlags: 0
  serializedVersion: 2
  m_Scenes:
  - enabled: 1
    path: Assets/APLibrary/Scenes/APBootScene.unity
    guid: 209f535ecf9464219a78be8bcec56c14
  m_configObjects: {}
