%YAML 1.1
%TAG !u! tag:unity3d.com,2011:
--- !u!78 &1
TagManager:
  serializedVersion: 2
  tags: []
  layers:
  - Default
  - TransparentFX
  - Ignore Raycast
  - 
  - Water
  - UI
  - 
  - 
  - PLAYER_LAYER
  - ENEMY_LAYER
  - GROUND_LAYER
  - BOUNDARY_LAYER
  - PICKUPS_LAYER
  - DESTINATION_LAYER
  - PLAYER_WEAPON
  - ENEMY_WEAPON
  - SENSOR
  - NON_RENDERING_LAYER
  - LADER
  - POWERUP
  - 
  - 
  - 
  - 
  - 
  - 
  - 
  - 
  - 
  - 
  - 
  - 
  m_SortingLayers:
  - name: Default
    uniqueID: 0
    locked: 0
